<?xml version="1.0" encoding="utf-8"?>
<!-- Generator: Adobe Illustrator 22.0.0, SVG Export Plug-In . SVG Version: 6.00 Build 0)  -->
<svg version="1.1" id="Layer_1" xmlns="http://www.w3.org/2000/svg" xmlns:xlink="http://www.w3.org/1999/xlink" x="0px" y="0px"
	 viewBox="0 0 16 15" style="enable-background:new 0 0 16 15;" xml:space="preserve">
<style type="text/css">
	.st0{fill:#1E2225;}
</style>
<path class="st0" d="M7.7,0.8c0.4,0.4,0.4,1,0,1.4L3.4,6.5H15c0.6,0,1,0.4,1,1c0,0.6-0.4,1-1,1H3.4l4.3,4.3c0.4,0.4,0.4,1,0,1.4
	c-0.4,0.4-1,0.4-1.4,0l-6-6C0.1,8,0,7.8,0,7.5S0.1,7,0.3,6.8l6-6C6.7,0.4,7.3,0.4,7.7,0.8z"/>
</svg>
