<?xml version="1.0" encoding="utf-8"?>
<!-- Generator: Adobe Illustrator 22.0.0, SVG Export Plug-In . SVG Version: 6.00 Build 0)  -->
<svg version="1.1" id="Layer_1" xmlns="http://www.w3.org/2000/svg" xmlns:xlink="http://www.w3.org/1999/xlink" x="0px" y="0px"
	 viewBox="0 0 28.2 27.9" style="enable-background:new 0 0 28.2 27.9;" xml:space="preserve">
<style type="text/css">
	.st0{clip-path:url(#SVGID_2_);}
</style>
<g>
	<defs>
		<rect id="SVGID_1_" x="1.3" y="-0.3" width="25.5" height="28.5"/>
	</defs>
	<clipPath id="SVGID_2_">
		<use xlink:href="#SVGID_1_"  style="overflow:visible;"/>
	</clipPath>
	<g class="st0">
		<path d="M26.6,17.7L23.9,15v-3.5c0-2.4-0.9-4.8-2.5-6.6c-1.6-1.8-3.9-2.9-6.3-3.2v-2h-2v2C10.7,2,8.4,3.1,6.8,4.9
			c-1.6,1.8-2.5,4.1-2.5,6.6V15l-2.7,2.7c-0.2,0.2-0.3,0.4-0.3,0.7v2.9c0,0.3,0.1,0.5,0.3,0.7s0.4,0.3,0.7,0.3h6.9v0.8
			c0,1.2,0.4,2.5,1.2,3.4c0.8,0.9,1.9,1.5,3.2,1.7c0.7,0.1,1.4,0,2-0.2c0.7-0.2,1.2-0.6,1.8-1c0.5-0.5,0.9-1,1.2-1.6
			c0.3-0.6,0.4-1.3,0.4-2v-1h6.9c0.3,0,0.5-0.1,0.7-0.3s0.3-0.4,0.3-0.7v-2.9C26.8,18.1,26.7,17.9,26.6,17.7z M17,23.3
			c0,0.8-0.3,1.5-0.9,2.1c-0.6,0.6-1.3,0.9-2.1,0.9c-0.8,0-1.5-0.3-2.1-0.9c-0.6-0.6-0.9-1.3-0.9-2.1v-1H17V23.3z M24.9,20.3H3.3
			v-1.6l2.7-2.7c0.2-0.2,0.3-0.4,0.3-0.7v-3.9c0-2.1,0.8-4.1,2.3-5.6C10,4.5,12,3.7,14.1,3.7s4.1,0.8,5.6,2.3
			c1.5,1.5,2.3,3.5,2.3,5.6v3.9c0,0.3,0.1,0.5,0.3,0.7l2.7,2.7V20.3z"/>
	</g>
</g>
</svg>
