<?xml version="1.0" encoding="utf-8"?>
<!-- Generator: Adobe Illustrator 22.0.0, SVG Export Plug-In . SVG Version: 6.00 Build 0)  -->
<svg version="1.1" id="Layer_1" xmlns="http://www.w3.org/2000/svg" xmlns:xlink="http://www.w3.org/1999/xlink" x="0px" y="0px"
	 viewBox="0 0 16 20" style="enable-background:new 0 0 16 20;" xml:space="preserve">
<style type="text/css">
	.st0{fill:#FFFFFF;}
</style>
<path class="st0" d="M8,0c0.6,0,1,0.4,1,1v10.6l2.3-2.3c0.4-0.4,1-0.4,1.4,0c0.4,0.4,0.4,1,0,1.4l-4,4c-0.4,0.4-1,0.4-1.4,0l-4-4
	c-0.4-0.4-0.4-1,0-1.4c0.4-0.4,1-0.4,1.4,0L7,11.6V1C7,0.4,7.4,0,8,0z M1,15c0.6,0,1,0.4,1,1v2h12v-2c0-0.6,0.4-1,1-1s1,0.4,1,1v2
	c0,1.1-0.9,2-2,2H2c-1.1,0-2-0.9-2-2v-2C0,15.4,0.4,15,1,15z"/>
</svg>
