<?xml version="1.0" encoding="utf-8"?>
<!-- Generator: Adobe Illustrator 27.5.0, SVG Export Plug-In . SVG Version: 6.00 Build 0)  -->
<svg version="1.1" id="Layer_1" xmlns="http://www.w3.org/2000/svg" xmlns:xlink="http://www.w3.org/1999/xlink" x="0px" y="0px"
	 viewBox="0 0 24.8 24.6" style="enable-background:new 0 0 24.8 24.6;" xml:space="preserve">
<style type="text/css">
	.st0{fill:#7988A0;}
</style>
<path class="st0" d="M3,7.7c0.5-0.5,1.4-0.5,1.9,0l7.6,7.6L20,7.7c0.5-0.5,1.4-0.5,1.9,0s0.5,1.4,0,1.9l-8.4,8.6
	c-0.5,0.5-1.4,0.5-1.9,0L3.1,9.8C2.3,9.1,2.3,8.3,3,7.7z"/>
</svg>
